[
  {
    "id": 1,
    "title": "Привезём точно по списку",
    "description": "Сборщик берëт с собой наручный терминал, на котором он видит весь список покупок для каждого заказа.",
    "image": {
      "1x": "/media/images/slides/1.png",
      "2x": "/media/images/slides/1@2x.png"
    }
  },
  {
    "id": 2,
    "title": "Собираем быстро и эффективно",
    "description": "Для улучшения эргономики пространства товары размещены от тяжëлых к лëгким, находящимся уже в конечной зоне упаковки.",
    "image": {
      "1x": "/media/images/slides/2.png",
      "2x": "/media/images/slides/2@2x.png"
    }
  },
  {
    "id": 3,
    "title": "За свежесть и качество отвечаем",
    "description": "Выделены специальные зоны, в том числе холодная и морозильная.",
    "image": {
      "1x": "/media/images/slides/3.png",
      "2x": "/media/images/slides/3@2x.png"
    }
  },
  {
    "id": 4,
    "title": "Шампунь не положат рядом с рыбой",
    "description": "Собираем и упаковываем ваш заказ с заботой: соблюдаем принципы товарного соседства и учитываем вес товара.",
    "image": {
      "1x": "/media/images/slides/4.png",
      "2x": "/media/images/slides/4@2x.png"
    }
  },
  {
    "id": 5,
    "title": "Довезëм в сохранности даже яйца",
    "description": "Бережно транспортируем контейнеры, фиксируя их стяжными ремнями. Системы охлаждения поддерживают температурный режим.",
    "image": {
      "1x": "/media/images/slides/5.png",
      "2x": "/media/images/slides/5@2x.png"
    }
  }
]
